<?xml version="1.0" encoding="UTF-8"?>
<!DOCTYPE svg PUBLIC "-//W3C//DTD SVG 1.1//EN" "http://www.w3.org/Graphics/SVG/1.1/DTD/svg11.dtd">
<!-- Creator: CorelDRAW X6 -->
<svg xmlns="http://www.w3.org/2000/svg" xml:space="preserve" width="1.21026cm" height="1.90377cm" version="1.1" style="shape-rendering:geometricPrecision; text-rendering:geometricPrecision; image-rendering:optimizeQuality; fill-rule:evenodd; clip-rule:evenodd"
viewBox="0 0 177 279"
 xmlns:xlink="http://www.w3.org/1999/xlink">
 <defs>
  <style type="text/css">
   <![CDATA[
    .fil0 {fill:#0077BD}
    .fil1 {fill:#373435;fill-rule:nonzero}
   ]]>
  </style>
 </defs>
 <g id="Camada_x0020_1">
  <metadata id="CorelCorpID_0Corel-Layer"/>
  <polygon class="fil0" points="153,77 177,91 177,119 153,133 129,119 129,91 "/>
  <polygon class="fil0" points="126,193 155,176 155,143 126,126 97,143 97,176 "/>
  <polygon class="fil0" points="74,135 92,145 93,167 74,178 55,167 55,146 "/>
  <polygon class="fil0" points="28,77 57,94 57,127 29,143 0,127 0,94 "/>
  <polygon class="fil0" points="57,33 81,46 81,73 58,87 35,73 34,47 "/>
  <polygon class="fil0" points="128,86 165,64 165,21 127,0 90,22 91,65 "/>
  <path class="fil1" d="M2 212l0 37c0,7 1,13 3,17 2,4 5,8 9,10 4,2 9,3 14,3 6,0 11,-1 15,-3 4,-2 7,-5 9,-10 2,-4 3,-10 3,-17l0 -37 -15 0 0 38c0,6 -1,10 -3,13 -2,3 -5,4 -9,4 -4,0 -7,-1 -9,-4 -2,-3 -3,-7 -3,-13l0 -38 -15 0zm66 66l15 0 0 -26 24 0 0 -12 -24 0 0 -15 25 0 0 -12 -40 0 0 66zm106 -37l-24 0 0 12 10 0 0 14c-1,0 -2,0 -3,1 -1,0 -3,0 -4,0 -3,0 -6,0 -8,-1 -3,-1 -5,-2 -7,-4 -2,-2 -3,-4 -4,-7 -1,-3 -2,-6 -2,-9 0,-4 1,-7 2,-9 1,-3 3,-5 5,-7 2,-2 4,-3 7,-4 3,-1 6,-1 9,-1 2,0 5,0 6,0 2,0 3,1 5,1 1,0 3,1 4,1l3 -12c-1,0 -2,-1 -4,-1 -2,0 -4,-1 -6,-1 -2,0 -5,0 -8,0 -5,0 -10,1 -15,2 -5,2 -8,4 -12,7 -3,3 -6,7 -8,11 -2,4 -3,9 -3,15 0,3 0,6 1,9 1,3 2,6 3,8 1,2 3,5 5,7 3,3 7,5 11,7 4,1 10,2 16,2 3,0 6,0 9,-1 3,0 5,-1 8,-1 2,-1 4,-1 6,-2l0 -34z"/>
 </g>
</svg>
