<?xml version="1.0" encoding="UTF-8"?>
<!DOCTYPE svg PUBLIC "-//W3C//DTD SVG 1.1//EN" "http://www.w3.org/Graphics/SVG/1.1/DTD/svg11.dtd">
<!-- Creator: CorelDRAW X6 -->
<svg xmlns="http://www.w3.org/2000/svg" xml:space="preserve" width="2.81546cm" height="0.79331cm" version="1.1" style="shape-rendering:geometricPrecision; text-rendering:geometricPrecision; image-rendering:optimizeQuality; fill-rule:evenodd; clip-rule:evenodd"
viewBox="0 0 778 219"
 xmlns:xlink="http://www.w3.org/1999/xlink">
 <defs>
  <style type="text/css">
   <![CDATA[
    .fil0 {fill:#373435;fill-rule:nonzero}
   ]]>
  </style>
 </defs>
 <g id="Camada_x0020_1">
  <metadata id="CorelCorpID_0Corel-Layer"/>
  <g id="_324805768">
   <path class="fil0" d="M9 128l28 0 0 -45c1,0 3,0 4,1 2,0 3,0 5,0 8,0 16,-1 23,-3 7,-2 13,-5 18,-10 4,-3 7,-8 9,-13 2,-5 3,-11 3,-17 0,-6 -1,-12 -4,-17 -2,-5 -6,-9 -10,-12 -4,-3 -9,-6 -16,-8 -6,-2 -14,-3 -23,-3 -9,0 -16,0 -22,1 -6,0 -12,1 -16,2l0 124zm28 -104c1,0 3,-1 4,-1 2,0 4,0 7,0 7,0 13,2 17,5 4,3 6,8 6,14 0,4 -1,8 -3,11 -2,3 -5,5 -8,7 -4,2 -8,2 -13,2 -2,0 -4,0 -5,0 -1,0 -3,0 -4,-1l0 -37zm135 104l28 0 0 -50 8 0c4,0 7,1 10,2 3,1 5,3 7,6 2,3 3,7 4,12 2,8 3,14 5,19 1,5 3,8 4,10l29 0c-1,-1 -1,-3 -2,-6 -1,-2 -2,-5 -2,-9 -1,-3 -2,-7 -3,-10 -1,-4 -2,-7 -3,-11 -2,-6 -4,-11 -6,-15 -3,-4 -6,-7 -10,-9l0 -1c3,-1 5,-2 8,-4 3,-2 5,-4 7,-7 2,-3 4,-6 5,-9 1,-3 2,-7 2,-11 0,-6 -1,-11 -3,-15 -2,-4 -5,-8 -9,-11 -4,-4 -10,-6 -17,-8 -7,-2 -15,-2 -24,-2 -8,0 -15,0 -21,1 -6,0 -12,1 -17,2l0 124zm28 -104c1,0 3,-1 5,-1 2,0 5,0 8,0 4,0 8,1 11,2 3,1 5,3 7,6 2,3 3,6 3,10 0,4 -1,7 -3,10 -2,3 -4,5 -8,6 -3,1 -7,2 -12,2l-11 0 0 -34zm192 -23c-9,0 -18,2 -25,5 -7,3 -14,8 -19,14 -5,6 -10,13 -12,21 -3,8 -4,17 -4,26 0,7 1,14 3,20 2,6 4,12 8,18 3,5 7,10 12,14 5,4 10,7 16,9 6,2 13,3 20,3 9,0 18,-2 25,-5 8,-3 14,-7 19,-13 5,-6 10,-13 13,-21 3,-8 4,-17 4,-28 0,-7 -1,-14 -2,-20 -2,-6 -4,-12 -7,-17 -3,-5 -7,-10 -12,-14 -5,-4 -10,-7 -17,-9 -6,-2 -13,-3 -21,-3zm-1 23c5,0 9,1 13,3 4,2 7,5 9,9 3,4 5,8 6,13 1,5 2,10 2,16 0,6 -1,12 -2,17 -1,5 -3,10 -6,14 -3,4 -6,7 -9,9 -4,2 -8,3 -13,3 -5,0 -9,-1 -13,-3 -4,-2 -7,-5 -10,-9 -3,-4 -5,-8 -6,-13 -1,-5 -2,-11 -2,-17 0,-6 1,-12 2,-17 1,-5 3,-10 6,-14 3,-4 6,-7 10,-9 4,-2 8,-3 13,-3zm209 29l-46 0 0 -26 49 0 0 -23 -77 0 0 126 80 0 0 -23 -52 0 0 -30 46 0 0 -23zm168 50c-2,1 -4,2 -7,2 -3,1 -5,1 -8,1 -3,0 -6,1 -9,1 -8,0 -16,-2 -22,-5 -6,-3 -11,-8 -14,-14 -3,-6 -5,-13 -5,-22 0,-7 1,-13 3,-18 2,-5 5,-10 8,-13 4,-3 8,-6 13,-8 5,-2 10,-3 16,-3 5,0 10,0 14,1 4,1 7,2 10,3l6 -22c-2,-1 -4,-2 -7,-3 -3,-1 -6,-2 -10,-2 -4,-1 -9,-1 -13,-1 -8,0 -15,1 -22,3 -7,2 -13,5 -19,8 -6,4 -11,8 -15,14 -4,5 -7,12 -10,19 -2,7 -3,15 -3,23 0,9 1,17 4,25 3,8 7,14 12,20 5,6 12,10 21,13 8,3 18,5 29,5 5,0 10,0 14,-1 4,-1 8,-1 11,-2 3,-1 5,-2 7,-2l-4 -22zm-769 117l4 0 0 -13c0,0 1,0 2,0 1,0 1,0 2,0 1,0 3,0 4,0 1,0 2,-1 3,-1 1,-1 2,-1 3,-2 1,-1 1,-2 2,-3 0,-1 1,-2 1,-4 0,-1 0,-3 -1,-4 0,-1 -1,-2 -2,-3 -1,-1 -2,-1 -4,-2 -1,0 -3,-1 -5,-1 -2,0 -3,0 -4,0 -1,0 -2,0 -3,0l0 31zm4 -28c0,0 1,0 2,0 1,0 1,0 2,0 1,0 3,0 4,1 1,0 2,1 3,2 1,1 1,2 1,3 0,1 0,3 -1,4 -1,1 -2,2 -3,2 -1,1 -3,1 -4,1 -1,0 -1,0 -2,0 -1,0 -1,0 -1,0l0 -12zm21 28l4 0 0 -14 4 0c1,0 2,0 3,1 1,0 1,1 2,2 1,1 1,2 1,3 0,2 1,4 1,5 0,1 1,2 1,3l4 0c0,-1 -1,-2 -1,-3 0,-1 -1,-3 -1,-5 0,-2 -1,-3 -2,-4 -1,-1 -2,-2 -3,-2l0 0c1,0 2,-1 3,-2 1,-1 2,-2 2,-3 1,-1 1,-2 1,-4 0,-1 0,-2 -1,-3 0,-1 -1,-2 -2,-3 -1,-1 -2,-2 -4,-2 -1,0 -3,-1 -5,-1 -1,0 -2,0 -3,0 -1,0 -2,0 -3,0 -1,0 -2,0 -2,0l0 31zm4 -28c0,0 1,0 2,0 1,0 2,0 2,0 1,0 3,0 4,1 1,0 2,1 3,2 1,1 1,2 1,3 0,1 0,2 -1,3 -1,1 -1,2 -2,2 -1,0 -2,1 -4,1l-4 0 0 -11zm34 -4c-2,0 -4,0 -6,1 -2,1 -3,2 -5,3 -1,1 -2,3 -3,5 -1,2 -1,4 -1,7 0,2 0,5 1,7 1,2 2,4 3,5 1,1 3,3 4,3 2,1 4,1 6,1 2,0 3,0 5,-1 1,0 3,-1 4,-2 1,-1 2,-2 3,-3 1,-1 2,-3 2,-5 0,-2 1,-4 1,-6 0,-2 0,-4 -1,-6 -1,-2 -2,-4 -3,-5 -1,-1 -3,-3 -4,-3 -2,-1 -4,-1 -6,-1zm0 3c1,0 3,0 4,1 1,0 2,1 3,2 1,1 1,2 2,3 1,1 1,2 1,3 0,1 0,2 0,4 0,2 0,3 -1,5 0,2 -1,3 -2,4 -1,1 -2,2 -3,3 -1,1 -3,1 -4,1 -1,0 -2,0 -4,-1 -1,0 -2,-1 -3,-2 -1,-1 -1,-2 -2,-3 -1,-1 -1,-2 -1,-3 0,-1 0,-3 0,-4 0,-1 0,-3 0,-4 0,-1 1,-2 1,-4 1,-1 1,-2 2,-3 1,-1 2,-1 3,-2 1,0 2,-1 4,-1zm2 -10l-4 5 3 0 6 -5 -5 0zm16 25l0 3 12 0 0 -3 -12 0zm16 14l4 0 0 -14 4 0c1,0 2,0 3,1 1,0 1,1 2,2 1,1 1,2 1,3 0,2 1,4 1,5 0,1 1,2 1,3l4 0c0,-1 -1,-2 -1,-3 0,-1 -1,-3 -1,-5 0,-2 -1,-3 -2,-4 -1,-1 -2,-2 -3,-2l0 0c1,0 2,-1 3,-2 1,-1 2,-2 2,-3 1,-1 1,-2 1,-4 0,-1 0,-2 -1,-3 0,-1 -1,-2 -2,-3 -1,-1 -2,-2 -4,-2 -1,0 -3,-1 -5,-1 -1,0 -2,0 -3,0 -1,0 -2,0 -3,0 -1,0 -2,0 -2,0l0 31zm4 -28c0,0 1,0 2,0 1,0 2,0 2,0 1,0 3,0 4,1 1,0 2,1 3,2 1,1 1,2 1,3 0,1 0,2 -1,3 -1,1 -1,2 -2,2 -1,0 -2,1 -4,1l-4 0 0 -11zm37 10l-12 0 0 -10 13 0 0 -3 -17 0 0 31 18 0 0 -3 -14 0 0 -11 12 0 0 -3zm7 -13l0 31 4 0 0 -31 -4 0zm17 31l4 0 0 -28 10 0 0 -3 -23 0 0 3 10 0 0 28zm29 -32c-2,0 -4,0 -6,1 -2,1 -3,2 -5,3 -1,1 -2,3 -3,5 -1,2 -1,4 -1,7 0,2 0,5 1,7 1,2 2,4 3,5 1,1 3,3 4,3 2,1 4,1 6,1 2,0 3,0 5,-1 1,0 3,-1 4,-2 1,-1 2,-2 3,-3 1,-1 2,-3 2,-5 0,-2 1,-4 1,-6 0,-2 0,-4 -1,-6 -1,-2 -2,-4 -3,-5 -1,-1 -3,-3 -4,-3 -2,-1 -4,-1 -6,-1zm0 3c1,0 3,0 4,1 1,0 2,1 3,2 1,1 1,2 2,3 1,1 1,2 1,3 0,1 0,2 0,4 0,2 0,3 -1,5 0,2 -1,3 -2,4 -1,1 -2,2 -3,3 -1,1 -3,1 -4,1 -1,0 -2,0 -4,-1 -1,0 -2,-1 -3,-2 -1,-1 -1,-2 -2,-3 -1,-1 -1,-2 -1,-3 0,-1 0,-3 0,-4 0,-1 0,-3 0,-4 0,-1 1,-2 1,-4 1,-1 1,-2 2,-3 1,-1 2,-1 3,-2 1,0 2,-1 4,-1zm20 29l4 0 0 -14 4 0c1,0 2,0 3,1 1,0 1,1 2,2 1,1 1,2 1,3 0,2 1,4 1,5 0,1 1,2 1,3l4 0c0,-1 -1,-2 -1,-3 0,-1 -1,-3 -1,-5 0,-2 -1,-3 -2,-4 -1,-1 -2,-2 -3,-2l0 0c1,0 2,-1 3,-2 1,-1 2,-2 2,-3 1,-1 1,-2 1,-4 0,-1 0,-2 -1,-3 0,-1 -1,-2 -2,-3 -1,-1 -2,-2 -4,-2 -1,0 -3,-1 -5,-1 -1,0 -2,0 -3,0 -1,0 -2,0 -3,0 -1,0 -2,0 -2,0l0 31zm4 -28c0,0 1,0 2,0 1,0 1,0 2,0 1,0 3,0 4,1 1,0 2,1 3,2 1,1 1,2 1,3 0,1 0,2 -1,3 -1,1 -1,2 -2,2 -1,0 -2,1 -4,1l-4 0 0 -11zm21 -3l0 31 4 0 0 -31 -4 0zm27 22l3 10 4 0 -11 -31 -5 0 -11 31 4 0 3 -10 11 0zm-10 -3l3 -9c0,-1 1,-2 1,-3 0,-1 0,-2 1,-3l0 0c0,1 0,2 1,3 0,1 1,2 1,3l3 9 -10 0zm32 13c1,0 2,0 3,0 1,0 3,0 4,0 3,0 6,0 8,-1 2,-1 4,-2 6,-3 1,-1 3,-3 3,-5 1,-2 1,-4 1,-7 0,-3 0,-5 -1,-7 -1,-2 -2,-3 -3,-5 -1,-1 -3,-2 -5,-3 -2,-1 -5,-1 -8,-1 -2,0 -3,0 -5,0 -1,0 -3,0 -4,1l0 31zm4 -28c1,0 1,0 2,0 1,0 2,0 3,0 3,0 5,1 7,1 2,1 3,2 4,4 1,2 1,4 1,6 0,3 -1,5 -2,7 -1,2 -3,3 -5,5 -2,1 -4,2 -7,2 -1,0 -2,0 -2,0 -1,0 -1,0 -2,0l0 -25zm43 10l-12 0 0 -10 13 0 0 -3 -17 0 0 31 18 0 0 -3 -14 0 0 -11 12 0 0 -3zm33 0l-12 0 0 -10 13 0 0 -3 -17 0 0 31 18 0 0 -3 -14 0 0 -11 12 0 0 -3zm29 18l-10 -16 10 -15 -5 0 -4 7c0,1 -1,1 -1,2 0,1 -1,1 -1,2 0,1 -1,1 -1,2l0 0c0,-1 -1,-2 -1,-3 0,-1 -1,-2 -2,-3l-4 -7 -5 0 9 16 -10 16 5 0 4 -7c1,-1 1,-2 1,-2 0,-1 1,-1 1,-2 0,-1 1,-1 1,-2l0 0c0,1 1,1 1,2 0,1 1,1 1,2 0,1 1,2 1,2l4 7 5 0zm11 0l4 0 0 -28 10 0 0 -3 -23 0 0 3 10 0 0 28zm33 -18l-12 0 0 -10 13 0 0 -3 -17 0 0 31 18 0 0 -3 -14 0 0 -11 12 0 0 -3zm11 18l0 -13c0,-2 0,-3 0,-5 0,-1 0,-3 0,-4 0,-1 0,-3 0,-4l0 0c1,2 2,3 3,5 1,2 2,4 3,5l10 16 4 0 0 -31 -4 0 0 13c0,2 0,3 0,5 0,1 0,3 0,4 0,1 0,3 0,4l0 0c-1,-2 -2,-3 -2,-5 -1,-2 -2,-3 -3,-5l-10 -16 -4 0 0 31 4 0zm25 -2c1,0 1,1 2,1 1,0 2,1 3,1 1,0 2,0 3,0 2,0 3,0 5,-1 1,0 3,-1 3,-2 1,-1 2,-2 2,-3 0,-1 1,-2 1,-3 0,-2 0,-3 -1,-4 -1,-1 -1,-2 -3,-3 -1,-1 -3,-2 -4,-2 -1,-1 -3,-1 -4,-2 -1,-1 -2,-1 -2,-2 0,-1 -1,-2 -1,-3 0,-1 0,-1 0,-2 0,-1 1,-1 1,-2 0,0 1,-1 2,-1 1,0 2,0 3,0 1,0 2,0 3,0 1,0 1,0 2,1 1,0 1,0 1,1l1 -3c0,0 -1,-1 -2,-1 -1,0 -1,0 -2,-1 -1,0 -2,0 -3,0 -2,0 -3,0 -4,1 -1,0 -2,1 -3,2 -1,1 -2,2 -2,3 0,1 -1,2 -1,3 0,1 0,3 1,4 1,1 2,2 3,3 1,1 3,2 4,2 1,1 3,1 3,2 1,1 2,1 2,2 0,1 1,2 1,3 0,1 0,2 -1,3 -1,1 -1,1 -2,2 -1,0 -2,1 -4,1 -1,0 -3,0 -4,-1 -1,0 -2,-1 -3,-1l-1 3zm41 -8l3 10 4 0 -11 -31 -5 0 -11 31 4 0 3 -10 11 0zm-10 -3l3 -9c0,-1 1,-2 1,-3 0,-1 0,-2 1,-3l0 0c0,1 0,2 1,3 0,1 1,2 1,3l3 9 -10 0zm1 -20c0,-1 0,-1 0,-2 0,0 0,-1 1,-1 0,0 1,0 1,0 0,0 1,0 1,1 0,0 1,0 1,1 0,0 1,0 1,0 1,0 2,0 2,-1 1,-1 1,-2 1,-3l-2 0c0,0 0,1 0,1 0,0 0,0 0,1 0,0 0,0 -1,0 0,0 -1,0 -1,0 0,0 -1,0 -1,-1 0,0 -1,0 -1,-1 0,0 -1,0 -1,0 -1,0 -1,0 -2,1 0,0 -1,1 -1,2 0,1 0,2 0,2l2 0zm33 1c-2,0 -4,0 -6,1 -2,1 -3,2 -5,3 -1,1 -2,3 -3,5 -1,2 -1,4 -1,7 0,2 0,5 1,7 1,2 2,4 3,5 1,1 3,3 4,3 2,1 4,1 6,1 2,0 3,0 5,-1 1,0 3,-1 4,-2 1,-1 2,-2 3,-3 1,-1 2,-3 2,-5 0,-2 1,-4 1,-6 0,-2 0,-4 -1,-6 -1,-2 -2,-4 -3,-5 -1,-1 -3,-3 -4,-3 -2,-1 -4,-1 -6,-1zm0 3c1,0 3,0 4,1 1,0 2,1 3,2 1,1 1,2 2,3 1,1 1,2 1,3 0,1 0,2 0,4 0,2 0,3 -1,5 0,2 -1,3 -2,4 -1,1 -2,2 -3,3 -1,1 -3,1 -4,1 -1,0 -2,0 -4,-1 -1,0 -2,-1 -3,-2 -1,-1 -1,-2 -2,-3 -1,-1 -1,-2 -1,-3 0,-1 0,-3 0,-4 0,-1 0,-3 0,-4 0,-1 1,-2 1,-4 1,-1 1,-2 2,-3 1,-1 2,-1 3,-2 1,0 2,-1 4,-1zm46 11l-12 0 0 -10 13 0 0 -3 -17 0 0 31 18 0 0 -3 -14 0 0 -11 12 0 0 -3zm38 14c-1,0 -1,0 -2,1 -1,0 -1,0 -2,0 -1,0 -2,0 -2,0 -3,0 -5,-1 -6,-2 -2,-1 -3,-2 -4,-4 -1,-2 -1,-4 -1,-7 0,-2 0,-4 1,-6 1,-2 1,-3 2,-4 1,-1 2,-2 4,-3 2,-1 3,-1 5,-1 1,0 2,0 4,0 1,0 2,1 3,1l1 -3c0,0 -1,0 -2,-1 -1,0 -2,0 -2,-1 -1,0 -2,0 -3,0 -2,0 -5,0 -7,1 -2,1 -4,2 -5,3 -1,1 -3,3 -3,5 -1,2 -1,4 -1,7 0,3 0,5 1,7 1,2 2,4 3,5 1,1 3,2 5,3 2,1 4,1 6,1 1,0 2,0 4,0 1,0 2,0 3,-1 1,0 1,0 2,-1l-1 -3zm6 -27l0 18c0,2 0,5 1,6 1,2 1,3 2,4 1,1 2,2 4,2 1,0 3,1 4,1 2,0 3,0 5,-1 1,-1 3,-1 4,-2 1,-1 2,-2 2,-4 1,-2 1,-4 1,-6l0 -18 -4 0 0 19c0,2 0,4 -1,6 -1,1 -2,3 -3,3 -1,1 -2,1 -4,1 -1,0 -3,0 -4,-1 -1,-1 -2,-2 -3,-3 -1,-1 -1,-3 -1,-6l0 -19 -4 0zm30 31l18 0 0 -3 -13 0 0 -28 -4 0 0 31zm24 0l4 0 0 -28 10 0 0 -3 -23 0 0 3 10 0 0 28zm17 -31l0 18c0,2 0,5 1,6 1,2 1,3 2,4 1,1 2,2 4,2 1,0 3,1 4,1 2,0 3,0 5,-1 1,-1 3,-1 4,-2 1,-1 2,-2 2,-4 1,-2 1,-4 1,-6l0 -18 -4 0 0 19c0,2 0,4 -1,6 -1,1 -2,3 -3,3 -1,1 -2,1 -4,1 -1,0 -3,0 -4,-1 -1,-1 -2,-2 -3,-3 -1,-1 -1,-3 -1,-6l0 -19 -4 0z"/>
   <path class="fil0" d="M729 219l4 0 0 -14 4 0c1,0 2,0 3,1 1,0 1,1 2,2 1,1 1,2 1,3 0,2 1,4 1,5 0,1 1,2 1,3l4 0c0,-1 -1,-2 -1,-3 0,-1 -1,-3 -1,-5 0,-2 -1,-3 -2,-4 -1,-1 -2,-2 -3,-2l0 0c1,0 2,-1 3,-2 1,-1 2,-2 2,-3 1,-1 1,-2 1,-4 0,-1 0,-2 -1,-3 0,-1 -1,-2 -2,-3 -1,-1 -2,-2 -4,-2 -1,0 -3,-1 -5,-1 -1,0 -2,0 -3,0 -1,0 -2,0 -3,0 -1,0 -2,0 -2,0l0 31zm4 -28c0,0 1,0 2,0 1,0 1,0 2,0 1,0 3,0 4,1 1,0 2,1 3,2 1,1 1,2 1,3 0,1 0,2 -1,3 -1,1 -1,2 -2,2 -1,0 -2,1 -4,1l-4 0 0 -11zm37 18l3 10 4 0 -11 -31 -5 0 -11 31 4 0 3 -10 11 0zm-10 -3l3 -9c0,-1 1,-2 1,-3 0,-1 0,-2 1,-3l0 0c0,1 0,2 1,3 0,1 1,2 1,3l3 9 -10 0z"/>
  </g>
 </g>
</svg>
